<svg width="18" height="18" viewBox="0 0 18 18" fill="none" xmlns="http://www.w3.org/2000/svg">
<path d="M18 7.94531C18 7.07298 17.2903 6.36328 16.418 6.36328H16.2261C16.0898 6.03489 15.8906 5.44215 15.8906 4.78125C15.8906 4.11286 16.0922 3.50286 16.23 3.16406H16.418C17.2903 3.16406 18 2.45436 18 1.58203C18 0.709699 17.2903 0 16.418 0H4.74609C2.1291 0 0 2.14485 0 4.78125C0 6.27057 0.68952 7.60187 1.76611 8.47266H1.58203C0.709699 8.47266 0 9.18236 0 10.0547C0 10.927 0.709699 11.6367 1.58203 11.6367H1.7742C1.91074 11.9649 2.10938 12.5561 2.10938 13.2188C2.10938 13.8873 1.90765 14.4975 1.77012 14.8359H1.58203C0.709699 14.8359 0 15.5456 0 16.418C0 17.2903 0.709699 18 1.58203 18H13.2539C15.8709 18 18 15.8552 18 13.2188C18 11.7294 17.3105 10.3981 16.2339 9.52734H16.418C17.2903 9.52734 18 8.81764 18 7.94531ZM1.05469 4.78125C1.05469 2.72644 2.71065 1.05469 4.74609 1.05469H16.418C16.7087 1.05469 16.9453 1.29125 16.9453 1.58203C16.9453 1.87281 16.7087 2.10938 16.418 2.10938C15.8615 2.10938 5.67011 2.10938 4.74609 2.10938C3.28855 2.10938 2.10938 3.3235 2.10938 4.78125C2.10938 6.23514 3.29221 7.41797 4.74609 7.41797H5.27344V8.47266H4.74609C2.71065 8.47266 1.05469 6.81669 1.05469 4.78125ZM15.1014 6.36328H10.582V5.30859H11.1094C11.4006 5.30859 11.6367 5.07248 11.6367 4.78125C11.6367 4.49002 11.4006 4.25391 11.1094 4.25391C10.3292 4.25391 5.5581 4.25391 4.74609 4.25391C4.45486 4.25391 4.21875 4.49002 4.21875 4.78125C4.21875 5.07248 4.45486 5.30859 4.74609 5.30859H5.27344V6.36328H4.74609C3.87376 6.36328 3.16406 5.65358 3.16406 4.78125C3.16406 3.90463 3.88853 3.16055 4.74609 3.16055H15.1076C14.9682 3.58861 14.8359 4.16116 14.8359 4.78125C14.8359 5.39156 14.964 5.94503 15.1014 6.36328ZM2.89863 11.6367H5.27344V12.1641C5.27344 12.3462 5.36745 12.5154 5.52206 12.6117C5.67668 12.708 5.87007 12.7177 6.03348 12.6373L7.94334 11.698L9.81882 12.6358C9.98293 12.7178 10.1771 12.7084 10.3319 12.6127C10.4874 12.5166 10.582 12.3469 10.582 12.1641V11.6368H13.2539C14.1262 11.6368 14.8359 12.3465 14.8359 13.2188C14.8359 14.0954 14.1114 14.836 13.2539 14.836H2.89241C3.0318 14.4079 3.16406 13.8388 3.16406 13.2188C3.16406 12.6084 3.03595 12.055 2.89863 11.6367ZM6.32812 11.317V5.30859H9.52734V11.3108L8.18114 10.6377C8.03377 10.564 7.86041 10.5634 7.71258 10.6361L6.32812 11.317ZM1.58203 10.582C1.29125 10.582 1.05469 10.3455 1.05469 10.0547C1.05469 9.76391 1.29125 9.52734 1.58203 9.52734H5.27344V10.582H1.58203ZM16.9453 13.2188C16.9453 15.2736 15.2893 16.9453 13.2539 16.9453H1.58203C1.29125 16.9453 1.05469 16.7087 1.05469 16.418C1.05469 16.1272 1.29125 15.8906 1.58203 15.8906C2.13627 15.8906 12.3299 15.8906 13.2539 15.8906C14.7114 15.8906 15.8906 14.6765 15.8906 13.2188C15.8906 11.7649 14.7078 10.582 13.2539 10.582H10.582V9.52734H13.2539C15.2893 9.52734 16.9453 11.1833 16.9453 13.2188ZM10.582 8.47266V7.41797C10.8253 7.41797 16.1866 7.41797 16.418 7.41797C16.7087 7.41797 16.9453 7.65454 16.9453 7.94531C16.9453 8.23609 16.7087 8.47266 16.418 8.47266H10.582Z" fill="white"/>
</svg>
