<svg width="28" height="27" viewBox="0 0 28 27" fill="none" xmlns="http://www.w3.org/2000/svg">
<path d="M14.3263 26.9998C21.8779 26.9998 27.9997 20.9557 27.9997 13.4999C27.9997 6.04412 21.8779 0 14.3263 0C6.77463 0 0.652832 6.04412 0.652832 13.4999C0.652832 20.9557 6.77463 26.9998 14.3263 26.9998Z" fill="white"/>
<path d="M21.5595 9.48737L21.5551 9.46955C21.1897 8.0113 19.5426 6.44657 18.03 6.12105L18.0129 6.11757C15.5664 5.65678 13.0856 5.65678 10.6396 6.11757L10.622 6.12105C9.10993 6.44657 7.46277 8.0114 7.09695 9.46955L7.09289 9.48737C6.64124 11.5238 6.64124 13.5891 7.09289 15.6255L7.09695 15.6433C7.44722 17.0393 8.97165 18.5322 10.4278 18.9427V20.5705C10.4278 21.1597 11.155 21.4491 11.5685 21.0239L13.239 19.3096C13.6013 19.3295 13.9638 19.3407 14.3262 19.3407C15.5578 19.3407 16.7899 19.2257 18.0129 18.9954L18.0299 18.9919C19.5425 18.6664 21.1897 17.1015 21.555 15.6434L21.5595 15.6256C22.0111 13.5891 22.0111 11.5239 21.5595 9.48737ZM20.2375 15.3303C19.9936 16.2816 18.743 17.4643 17.7494 17.6829C16.4485 17.9271 15.1373 18.0315 13.8274 17.9957C13.8014 17.995 13.7763 18.005 13.7582 18.0234C13.5723 18.2118 12.5385 19.2596 12.5385 19.2596L11.2413 20.5742C11.1464 20.6718 10.9798 20.6053 10.9798 20.4706V17.774C10.9798 17.7294 10.9476 17.6916 10.9032 17.683C10.903 17.6829 10.9028 17.6829 10.9025 17.6828C9.90881 17.4643 8.65866 16.2816 8.4143 15.3302C8.00778 13.4895 8.00778 11.6234 8.4143 9.78269C8.65866 8.83131 9.90881 7.64859 10.9025 7.43006C13.1744 7.00344 15.478 7.00344 17.7494 7.43006C18.7436 7.64859 19.9937 8.83131 20.2376 9.78269C20.6445 11.6235 20.6445 13.4895 20.2375 15.3303Z" fill="#0F54B9"/>
<path d="M16.4879 16.5756C16.3352 16.5298 16.1896 16.499 16.0543 16.4437C14.6533 15.8698 13.3639 15.1294 12.3426 13.9945C11.7618 13.3492 11.3073 12.6205 10.923 11.8495C10.7408 11.4838 10.5872 11.1039 10.4307 10.7263C10.2879 10.382 10.4982 10.0264 10.7195 9.76695C10.9272 9.52347 11.1946 9.33722 11.484 9.19985C11.71 9.09269 11.9328 9.15449 12.0979 9.34354C12.4545 9.75234 12.7823 10.182 13.0475 10.6559C13.2107 10.9473 13.1659 11.3036 12.8702 11.5019C12.7983 11.5501 12.7328 11.6068 12.6659 11.6612C12.6071 11.7089 12.5519 11.7571 12.5116 11.8217C12.4381 11.9399 12.4346 12.0794 12.4819 12.2079C12.8465 13.1972 13.4611 13.9666 14.4698 14.3811C14.6312 14.4474 14.7933 14.5245 14.9793 14.5031C15.2907 14.4672 15.3915 14.1299 15.6097 13.9538C15.823 13.7816 16.0956 13.7793 16.3254 13.9229C16.5552 14.0665 16.7779 14.2206 16.9994 14.3764C17.2167 14.5294 17.4331 14.6789 17.6336 14.8532C17.8264 15.0209 17.8928 15.2408 17.7842 15.4682C17.5855 15.8849 17.2963 16.2314 16.8792 16.4527C16.7614 16.515 16.6207 16.5352 16.4879 16.5756C16.6207 16.5352 16.3352 16.5298 16.4879 16.5756Z" fill="#0F54B9"/>
<path d="M14.3303 8.72362C16.1628 8.77435 17.668 9.97505 17.9905 11.7638C18.0455 12.0686 18.065 12.3801 18.0895 12.6895C18.0998 12.8196 18.0251 12.9432 17.8829 12.945C17.7361 12.9467 17.67 12.8253 17.6604 12.6953C17.6415 12.4379 17.6284 12.1792 17.5925 11.924C17.4028 10.5762 16.3143 9.4611 14.9555 9.22185C14.751 9.18583 14.5418 9.17639 14.3346 9.15493C14.2037 9.14138 14.0323 9.13357 14.0033 8.97284C13.979 8.8381 14.0941 8.73084 14.2241 8.72393C14.2593 8.72188 14.2948 8.72351 14.3303 8.72362C14.2948 8.72351 16.1629 8.77435 14.3303 8.72362Z" fill="#0F54B9"/>
<path d="M17.1151 12.2879C17.1121 12.3106 17.1105 12.3637 17.0971 12.4137C17.0485 12.5953 16.7694 12.618 16.7053 12.4348C16.6862 12.3804 16.6834 12.3185 16.6833 12.2599C16.6827 11.8768 16.5983 11.4939 16.4026 11.1605C16.2014 10.8178 15.8939 10.5298 15.5334 10.3554C15.3154 10.25 15.0797 10.1845 14.8407 10.1455C14.7363 10.1284 14.6308 10.1182 14.5258 10.1037C14.3987 10.0863 14.3307 10.0063 14.3368 9.88254C14.3424 9.76663 14.4282 9.68315 14.5562 9.69038C14.9767 9.7139 15.383 9.80376 15.7569 9.99919C16.5172 10.3967 16.9515 11.0242 17.0783 11.8621C17.084 11.9001 17.0932 11.9376 17.0962 11.9757C17.1033 12.0697 17.1079 12.1638 17.1151 12.2879C17.1079 12.1638 17.1121 12.3105 17.1151 12.2879Z" fill="#0F54B9"/>
<path d="M15.9752 12.2442C15.8219 12.247 15.7399 12.1631 15.724 12.0244C15.7131 11.9277 15.7043 11.8296 15.6809 11.7355C15.6349 11.55 15.5351 11.3782 15.3771 11.2645C15.3025 11.2109 15.218 11.1718 15.1294 11.1465C15.017 11.1144 14.9002 11.1233 14.788 11.0962C14.6662 11.0667 14.5988 10.9692 14.618 10.8564C14.6354 10.7537 14.7366 10.6736 14.8503 10.6817C15.5607 10.7324 16.0685 11.095 16.141 11.9208C16.1462 11.9791 16.1522 12.0406 16.1391 12.0965C16.1166 12.1918 16.045 12.2396 15.9752 12.2442C16.045 12.2396 15.8219 12.2469 15.9752 12.2442Z" fill="#0F54B9"/>
<path d="M16.488 16.5756C16.6207 16.5362 16.3352 16.5309 16.488 16.5756V16.5756Z" fill="white"/>
<path d="M14.3352 8.72555C14.3335 8.72555 14.332 8.72539 14.3304 8.72539C14.3288 8.72528 14.3308 8.72539 14.3352 8.72555Z" fill="white"/>
<path d="M14.3306 8.72437C14.3321 8.72437 14.3336 8.72453 14.3352 8.72453C14.4369 8.72816 16.0909 8.77371 14.3306 8.72437Z" fill="white"/>
<path d="M17.115 12.2863C17.1079 12.1667 17.112 12.308 17.115 12.2863V12.2863Z" fill="white"/>
<path d="M15.9757 12.2445C15.9781 12.2443 15.9805 12.2431 15.9828 12.2428C15.9762 12.2428 15.9662 12.243 15.9558 12.2433C15.9625 12.2435 15.9687 12.2445 15.9757 12.2445Z" fill="white"/>
<path d="M15.9745 12.2446C15.9677 12.2447 15.9617 12.2437 15.9551 12.2435C15.9224 12.2444 15.8886 12.2461 15.9745 12.2446Z" fill="white"/>
<path d="M15.9823 12.2424C15.9796 12.2427 15.9771 12.2441 15.9746 12.2442C15.9942 12.2429 15.9926 12.2424 15.9823 12.2424Z" fill="white"/>
</svg>
